{"count":7,"page":2,"page_size":3,"total_pages":3,"periods":[{"id":"2022-2","incidents":[{"id":"53913bd0","title":"Xalyus Store cannot download any apps","date":"2022-02-18T08:44:00.622Z","modified":"2022-02-18T11:19:40.769Z","scheduled":null,"severity":"partial-outage","affectedsystems":["xalyus-store"],"resolved":true,"content":"<p>When downloading an application in Xalyus Store, the app crashes.</p>\n<!--- language code: en -->\n<div class=\"update-block\">\n          <div class=\"update-block-date\">2022-02-18T11:19:40.769Z</div>\n          <div class=\"update-block-content\">\n            <div class=\"update-block-title\">Resolved</div>\n            <div class=\"update-block-body\">\n<p>A fix for Xalyus Store is now rolling out to everyone. Thanks for your patience. Note that if cannot install it, we strongly recommand you reinstall Xalyus Store by <a href=\"https://tinyurl.com/DownloadXalyusStore\" target=\"_blank\" rel=\"noopener noreferrer\" class=\"external\">downloading it again here</a>.</p>\n</div></div></div>\n<div class=\"update-block\">\n          <div class=\"update-block-date\">2022-02-18T08:55:19.184Z</div>\n          <div class=\"update-block-content\">\n            <div class=\"update-block-title\">Monitoring</div>\n            <div class=\"update-block-body\">\n<p>We found the cause of the issue and we are working on a fix. Howerver, it might get released later this day.\nYou can use our <a href=\"https://leocorporation.dev/\" target=\"_blank\" rel=\"noopener noreferrer\" class=\"external\">website</a> to download our apps if needed.</p>\n</div></div></div>\n"}],"order":14,"count":1},{"id":"2021-12","incidents":[{"id":"33d772a9","title":"RAWG API Down","date":"2021-12-06T15:28:37.145Z","modified":"2021-12-07T14:24:34.302Z","scheduled":null,"severity":"partial-outage","affectedsystems":["gavilya-services"],"resolved":true,"content":"<p>The RAWG API is currently unavailable, some features of Gavilya no longer work.</p>\n<!--- language code: en -->\n<div class=\"update-block\">\n          <div class=\"update-block-date\">2021-12-07T14:24:34.302Z</div>\n          <div class=\"update-block-content\">\n            <div class=\"update-block-title\">Resolved</div>\n            <div class=\"update-block-body\">\n<p>The issue is now resolved. All Gavilya's services should work as expected.</p>\n</div></div></div>\n<div class=\"update-block\">\n          <div class=\"update-block-date\">2021-12-06T19:50:22.889Z</div>\n          <div class=\"update-block-content\">\n            <div class=\"update-block-title\">Monitoring</div>\n            <div class=\"update-block-body\">\n<p>Here what's new since the last update:</p>\n<ul>\n<li>The RAWG API is still unavailable.</li>\n<li>Gavilya's update system is working as expected, and there is no issues about it.</li>\n<li>We have changed the severity to &quot;Partial outage&quot; since all of Gavilya's services except RAWG are working and performing as expected.</li>\n<li>We won't update this status page until next day, the issue may take some time to resolve.</li>\n<li>This issue is <strong>NOT</strong> related to any Léo Corporation's service.</li>\n</ul>\n<p><em>Thank you for your patience.</em></p>\n</div></div></div>\n<div class=\"update-block\">\n          <div class=\"update-block-date\">2021-12-06T15:40:32.659Z</div>\n          <div class=\"update-block-content\">\n            <div class=\"update-block-title\">Monitoring</div>\n            <div class=\"update-block-body\">\n<p>We are closely monitoring the situation and we'll keep you updated about any significant development.</p>\n<h4>How Gavilya is affected</h4>\n<p>Since the API isn't currently available, you'll see lots of error messages if you have linked your games to the RAWG database. This issue shouldn't however, cause a crash of the app.</p>\n</div></div></div>\n"}],"order":16,"count":1},{"id":"2021-9","incidents":[{"id":"6e5e4c10","title":"The website doesn't look like normal","date":"2021-09-08T12:12:58.615Z","modified":"2021-09-08T12:13:32.456Z","scheduled":null,"severity":"degraded-performance","affectedsystems":["website"],"resolved":true,"content":"<p>Titles, buttons and more, aren't displaying as properly.</p>\n<div class=\"update-block\">\n          <div class=\"update-block-date\">2021-09-08T12:13:32.456Z</div>\n          <div class=\"update-block-content\">\n            <div class=\"update-block-title\">Resolved</div>\n            <div class=\"update-block-body\">\n<p>The issue has been resolved, our websites should look like normal.</p>\n</div></div></div>\n"}],"order":19,"count":1}]}